hw1-systemverilog/treasure-hunt.vcd
$date
	Mon Jan 16 21:30:38 2023
$end
$version
	Icarus Verilog
$end
$timescale
	1ps
$end
$scope module make_waveform $end
$var reg 1 ! a $end
$var reg 1 " b $end
$var reg 1 # clk $end
$scope module t0 $end
$var wire 1 # clk $end
$scope module b0 $end
$var wire 1 # clk $end
$var wire 16 $ o [15:0] $end
$var reg 16 % state [15:0] $end
$upscope $end
$scope module b1 $end
$var wire 1 # clk $end
$var wire 16 & o [15:0] $end
$var reg 16 ' state [15:0] $end
$upscope $end
$scope module b2 $end
$var wire 1 # clk $end
$var wire 8 ( o [7:0] $end
$var reg 8 ) state [7:0] $end
$upscope $end
$scope module b3 $end
$var wire 1 # clk $end
$var wire 16 * o [15:0] $end
$var reg 16 + state [15:0] $end
$upscope $end
$scope module b4 $end
$var wire 1 # clk $end
$var wire 16 , o [15:0] $end
$var reg 16 - state [15:0] $end
$upscope $end
$upscope $end
$upscope $end
$enddefinitions $end
#0
$dumpvars
b1111000000000000 -
b1111000000000000 ,
b100000000000000 +
b100000000000000 *
b0 )
b0 (
b1010000000000000 '
b1010000000000000 &
b1011000000000000 %
b1011000000000000 $
0#
0"
0!
$end
#2000
b1011000000000001 $
b1011000000000001 %
b1010000000000001 &
b1010000000000001 '
b1 (
b1 )
b100000000000001 *
b100000000000001 +
b1111000000000001 ,
b1111000000000001 -
1#
#4000
0#
#6000
b1111000000000010 ,
b1111000000000010 -
b100000000000010 *
b100000000000010 +
b10 (
b10 )
b1010000000000010 &
b1010000000000010 '
b1011000000000010 $
b1011000000000010 %
1#
#8000
0#
#10000
b1011000000000011 $
b1011000000000011 %
b1010000000000011 &
b1010000000000011 '
b11 (
b11 )
b100000000000011 *
b100000000000011 +
b1111000000000011 ,
b1111000000000011 -
1#
#12000
0#
#14000
b1111000000000100 ,
b1111000000000100 -
b100000000000100 *
b100000000000100 +
b100 (
b100 )
b1010000000000100 &
b1010000000000100 '
b1011000000000100 $
b1011000000000100 %
1#
#16000
0#
#18000
b1011000000000101 $
b1011000000000101 %
b1010000000000101 &
b1010000000000101 '
b101 (
b101 )
b100000000000101 *
b100000000000101 +
b1111000000000101 ,
b1111000000000101 -
1#
#20000
0#
#22000
b1111000000000110 ,
b1111000000000110 -
b100000000000110 *
b100000000000110 +
b110 (
b110 )
b1010000000000110 &
b1010000000000110 '
b1011000000000110 $
b1011000000000110 %
1#
#24000
0#
#26000
b1011000000000111 $
b1011000000000111 %
b1010000000000111 &
b1010000000000111 '
b111 (
b111 )
b100000000000111 *
b100000000000111 +
b1111000000000111 ,
b1111000000000111 -
1#
#28000
0#
#30000
b1111000000001000 ,
b1111000000001000 -
b100000000001000 *
b100000000001000 +
b1000 (
b1000 )
b1010000000001000 &
b1010000000001000 '
b1011000000001000 $
b1011000000001000 %
1#
#32000
0#
#34000
b1011000000001001 $
b1011000000001001 %
b1010000000001001 &
b1010000000001001 '
b1001 (
b1001 )
b100000000001001 *
b100000000001001 +
b1111000000001001 ,
b1111000000001001 -
1#
#36000
0#
#38000
b1111000000001010 ,
b1111000000001010 -
b100000000001010 *
b100000000001010 +
b1010 (
b1010 )
b1010000000001010 &
b1010000000001010 '
b1011000000001010 $
b1011000000001010 %
1#
#40000
0#
#42000
b1011000000001011 $
b1011000000001011 %
b1010000000001011 &
b1010000000001011 '
b1011 (
b1011 )
b100000000001011 *
b100000000001011 +
b1111000000001011 ,
b1111000000001011 -
1#
#44000
0#
#46000
b1111000000001100 ,
b1111000000001100 -
b100000000001100 *
b100000000001100 +
b1100 (
b1100 )
b1010000000001100 &
b1010000000001100 '
b1011000000001100 $
b1011000000001100 %
1#
#48000
0#
#50000
b1011000000001101 $
b1011000000001101 %
b1010000000001101 &
b1010000000001101 '
b1101 (
b1101 )
b100000000001101 *
b100000000001101 +
b1111000000001101 ,
b1111000000001101 -
1#
#52000
0#
#54000
b1111000000001110 ,
b1111000000001110 -
b100000000001110 *
b100000000001110 +
b1110 (
b1110 )
b1010000000001110 &
b1010000000001110 '
b1011000000001110 $
b1011000000001110 %
1#
#56000
0#
#58000
b1011000000001111 $
b1011000000001111 %
b1010000000001111 &
b1010000000001111 '
b1111 (
b1111 )
b100000000001111 *
b100000000001111 +
b1111000000001111 ,
b1111000000001111 -
1#
#60000
0#
#62000
b1111000000010000 ,
b1111000000010000 -
b100000000010000 *
b100000000010000 +
b10000 (
b10000 )
b1010000000010000 &
b1010000000010000 '
b1011000000010000 $
b1011000000010000 %
1#
#64000
0#
#66000
b1011000000010001 $
b1011000000010001 %
b1010000000010001 &
b1010000000010001 '
b10001 (
b10001 )
b100000000010001 *
b100000000010001 +
b1111000000010001 ,
b1111000000010001 -
1#
#68000
0#
#70000
b1111000000010010 ,
b1111000000010010 -
b100000000010010 *
b100000000010010 +
b10010 (
b10010 )
b1010000000010010 &
b1010000000010010 '
b1011000000010010 $
b1011000000010010 %
1#
#72000
0#
#74000
b1011000000010011 $
b1011000000010011 %
b1010000000010011 &
b1010000000010011 '
b10011 (
b10011 )
b100000000010011 *
b100000000010011 +
b1111000000010011 ,
b1111000000010011 -
1#
#76000
0#
#78000
b1111000000010100 ,
b1111000000010100 -
b100000000010100 *
b100000000010100 +
b10100 (
b10100 )
b1010000000010100 &
b1010000000010100 '
b1011000000010100 $
b1011000000010100 %
1#
#80000
0#
#82000
b1011000000010101 $
b1011000000010101 %
b1010000000010101 &
b1010000000010101 '
b10101 (
b10101 )
b100000000010101 *
b100000000010101 +
b1111000000010101 ,
b1111000000010101 -
1#
#84000
0#
#86000
b1111000000010110 ,
b1111000000010110 -
b100000000010110 *
b100000000010110 +
b10110 (
b10110 )
b1010000000010110 &
b1010000000010110 '
b1011000000010110 $
b1011000000010110 %
1#
#88000
0#
#90000
b1011000000010111 $
b1011000000010111 %
b1010000000010111 &
b1010000000010111 '
b10111 (
b10111 )
b100000000010111 *
b100000000010111 +
b1111000000010111 ,
b1111000000010111 -
1#
#92000
0#
#94000
b1111000000011000 ,
b1111000000011000 -
b100000000011000 *
b100000000011000 +
b11000 (
b11000 )
b1010000000011000 &
b1010000000011000 '
b1011000000011000 $
b1011000000011000 %
1#
#96000
0#
#98000
b1011000000011001 $
b1011000000011001 %
b1010000000011001 &
b1010000000011001 '
b11001 (
b11001 )
b100000000011001 *
b100000000011001 +
b1111000000011001 ,
b1111000000011001 -
1#
#100000
0#
#102000
b1111000000011010 ,
b1111000000011010 -
b100000000011010 *
b100000000011010 +
b11010 (
b11010 )
b1010000000011010 &
b1010000000011010 '
b1011000000011010 $
b1011000000011010 %
1#
#104000
0#
#106000
b1011000000011011 $
b1011000000011011 %
b1010000000011011 &
b1010000000011011 '
b11011 (
b11011 )
b100000000011011 *
b100000000011011 +
b1111000000011011 ,
b1111000000011011 -
1#
#108000
0#
#110000
b1111000000011100 ,
b1111000000011100 -
b100000000011100 *
b100000000011100 +
b11100 (
b11100 )
b1010000000011100 &
b1010000000011100 '
b1011000000011100 $
b1011000000011100 %
1#
#112000
0#
#114000
b1011000000011101 $
b1011000000011101 %
b1010000000011101 &
b1010000000011101 '
b11101 (
b11101 )
b100000000011101 *
b100000000011101 +
b1111000000011101 ,
b1111000000011101 -
1#
#116000
0#
#118000
b1111000000011110 ,
b1111000000011110 -
b100000000011110 *
b100000000011110 +
b11110 (
b11110 )
b1010000000011110 &
b1010000000011110 '
b1011000000011110 $
b1011000000011110 %
1#
#120000
0#
#122000
b1011000000011111 $
b1011000000011111 %
b1010000000011111 &
b1010000000011111 '
b11111 (
b11111 )
b100000000011111 *
b100000000011111 +
b1111000000011111 ,
b1111000000011111 -
1#
#124000
0#
#126000
b1111000000100000 ,
b1111000000100000 -
b100000000100000 *
b100000000100000 +
b100000 (
b100000 )
b1010000000100000 &
b1010000000100000 '
b1011000000100000 $
b1011000000100000 %
1#
#128000
0#
#130000
b1011000000100001 $
b1011000000100001 %
b1010000000100001 &
b1010000000100001 '
b100001 (
b100001 )
b100000000100001 *
b100000000100001 +
b1111000000100001 ,
b1111000000100001 -
1#
#132000
0#
#134000
b1111000000100010 ,
b1111000000100010 -
b100000000100010 *
b100000000100010 +
b100010 (
b100010 )
b1010000000100010 &
b1010000000100010 '
b1011000000100010 $
b1011000000100010 %
1#
#136000
0#
#138000
b1011000000100011 $
b1011000000100011 %
b1010000000100011 &
b1010000000100011 '
b100011 (
b100011 )
b100000000100011 *
b100000000100011 +
b1111000000100011 ,
b1111000000100011 -
1#
#140000
0#
#142000
b1111000000100100 ,
b1111000000100100 -
b100000000100100 *
b100000000100100 +
b100100 (
b100100 )
b1010000000100100 &
b1010000000100100 '
b1011000000100100 $
b1011000000100100 %
1#
#144000
0#
#146000
b1011000000100101 $
b1011000000100101 %
b1010000000100101 &
b1010000000100101 '
b100101 (
b100101 )
b100000000100101 *
b100000000100101 +
b1111000000100101 ,
b1111000000100101 -
1#
#148000
0#
#150000
b1111000000100110 ,
b1111000000100110 -
b100000000100110 *
b100000000100110 +
b100110 (
b100110 )
b1010000000100110 &
b1010000000100110 '
b1011000000100110 $
b1011000000100110 %
1#
#152000
0#
#154000
b1011000000100111 $
b1011000000100111 %
b1010000000100111 &
b1010000000100111 '
b100111 (
b100111 )
b100000000100111 *
b100000000100111 +
b1111000000100111 ,
b1111000000100111 -
1#
#156000
0#
#158000
b1111000000101000 ,
b1111000000101000 -
b100000000101000 *
b100000000101000 +
b101000 (
b101000 )
b1010000000101000 &
b1010000000101000 '
b1011000000101000 $
b1011000000101000 %
1#
#160000
0#
#162000
b1011000000101001 $
b1011000000101001 %
b1010000000101001 &
b1010000000101001 '
b101001 (
b101001 )
b100000000101001 *
b100000000101001 +
b1111000000101001 ,
b1111000000101001 -
1#
#164000
0#
#166000
b1111000000101010 ,
b1111000000101010 -
b100000000101010 *
b100000000101010 +
b101010 (
b101010 )
b1010000000101010 &
b1010000000101010 '
b1011000000101010 $
b1011000000101010 %
1#
#168000
0#
#170000
b1011000000101011 $
b1011000000101011 %
b1010000000101011 &
b1010000000101011 '
b101011 (
b101011 )
b100000000101011 *
b100000000101011 +
b1111000000101011 ,
b1111000000101011 -
1#
#172000
0#
#174000
b1111000000101100 ,
b1111000000101100 -
b100000000101100 *
b100000000101100 +
b101100 (
b101100 )
b1010000000101100 &
b1010000000101100 '
b1011000000101100 $
b1011000000101100 %
1#
#176000
0#
#178000
b1011000000101101 $
b1011000000101101 %
b1010000000101101 &
b1010000000101101 '
b101101 (
b101101 )
b100000000101101 *
b100000000101101 +
b1111000000101101 ,
b1111000000101101 -
1#
#180000
0#
#182000
b1111000000101110 ,
b1111000000101110 -
b100000000101110 *
b100000000101110 +
b101110 (
b101110 )
b1010000000101110 &
b1010000000101110 '
b1011000000101110 $
b1011000000101110 %
1#
#184000
0#
#186000
b1011000000101111 $
b1011000000101111 %
b1010000000101111 &
b1010000000101111 '
b101111 (
b101111 )
b100000000101111 *
b100000000101111 +
b1111000000101111 ,
b1111000000101111 -
1#
#188000
0#
#190000
b1111000000110000 ,
b1111000000110000 -
b100000000110000 *
b100000000110000 +
b110000 (
b110000 )
b1010000000110000 &
b1010000000110000 '
b1011000000110000 $
b1011000000110000 %
1#
#192000
0#
#194000
b1011000000110001 $
b1011000000110001 %
b1010000000110001 &
b1010000000110001 '
b110001 (
b110001 )
b100000000110001 *
b100000000110001 +
b1111000000110001 ,
b1111000000110001 -
1#
#196000
0#
#198000
b1111000000110010 ,
b1111000000110010 -
b100000000110010 *
b100000000110010 +
b110010 (
b110010 )
b1010000000110010 &
b1010000000110010 '
b1011000000110010 $
b1011000000110010 %
1#
#200000
0#
#202000
b1011000000110011 $
b1011000000110011 %
b1010000000110011 &
b1010000000110011 '
b110011 (
b110011 )
b100000000110011 *
b100000000110011 +
b1111000000110011 ,
b1111000000110011 -
1#
#204000
0#
#206000
b1111000000110100 ,
b1111000000110100 -
b100000000110100 *
b100000000110100 +
b110100 (
b110100 )
b1010000000110100 &
b1010000000110100 '
b1011000000110100 $
b1011000000110100 %
1#
#208000
0#
#210000
b1011000000110101 $
b1011000000110101 %
b1010000000110101 &
b1010000000110101 '
b110101 (
b110101 )
b100000000110101 *
b100000000110101 +
b1111000000110101 ,
b1111000000110101 -
1#
#212000
0#
#214000
b1111000000110110 ,
b1111000000110110 -
b100000000110110 *
b100000000110110 +
b110110 (
b110110 )
b1010000000110110 &
b1010000000110110 '
b1011000000110110 $
b1011000000110110 %
1#
#216000
0#
#218000
b1011000000110111 $
b1011000000110111 %
b1010000000110111 &
b1010000000110111 '
b110111 (
b110111 )
b100000000110111 *
b100000000110111 +
b1111000000110111 ,
b1111000000110111 -
1#
#220000
0#
#222000
b1111000000111000 ,
b1111000000111000 -
b100000000111000 *
b100000000111000 +
b111000 (
b111000 )
b1010000000111000 &
b1010000000111000 '
b1011000000111000 $
b1011000000111000 %
1#
#224000
0#
#226000
b1011000000111001 $
b1011000000111001 %
b1010000000111001 &
b1010000000111001 '
b111001 (
b111001 )
b100000000111001 *
b100000000111001 +
b1111000000111001 ,
b1111000000111001 -
1#
#228000
0#
#230000
b1111000000111010 ,
b1111000000111010 -
b100000000111010 *
b100000000111010 +
b111010 (
b111010 )
b1010000000111010 &
b1010000000111010 '
b1011000000111010 $
b1011000000111010 %
1#
#232000
0#
#234000
b1011000000111011 $
b1011000000111011 %
b1010000000111011 &
b1010000000111011 '
b111011 (
b111011 )
b100000000111011 *
b100000000111011 +
b1111000000111011 ,
b1111000000111011 -
1#
#236000
0#
#238000
b1111000000111100 ,
b1111000000111100 -
b100000000111100 *
b100000000111100 +
b111100 (
b111100 )
b1010000000111100 &
b1010000000111100 '
b1011000000111100 $
b1011000000111100 %
1#
#240000
0#
#242000
b1011000000111101 $
b1011000000111101 %
b1010000000111101 &
b1010000000111101 '
b111101 (
b111101 )
b100000000111101 *
b100000000111101 +
b1111000000111101 ,
b1111000000111101 -
1#
#244000
0#
#246000
b1111000000111110 ,
b1111000000111110 -
b100000000111110 *
b100000000111110 +
b111110 (
b111110 )
b1010000000111110 &
b1010000000111110 '
b1011000000111110 $
b1011000000111110 %
1#
#248000
0#
#250000
b1011000000111111 $
b1011000000111111 %
b1010000000111111 &
b1010000000111111 '
b111111 (
b111111 )
b100000000111111 *
b100000000111111 +
b1111000000111111 ,
b1111000000111111 -
1#
#252000
0#
#254000
b1111000001000000 ,
b1111000001000000 -
b100000001000000 *
b100000001000000 +
b1000000 (
b1000000 )
b1010000001000000 &
b1010000001000000 '
b1011000001000000 $
b1011000001000000 %
1#
#256000
0#
#258000
b1011000001000001 $
b1011000001000001 %
b1010000001000001 &
b1010000001000001 '
b1000001 (
b1000001 )
b100000001000001 *
b100000001000001 +
b1111000001000001 ,
b1111000001000001 -
1#
#260000
0#
#262000
b1111000001000010 ,
b1111000001000010 -
b100000001000010 *
b100000001000010 +
b1000010 (
b1000010 )
b1010000001000010 &
b1010000001000010 '
b1011000001000010 $
b1011000001000010 %
1#
#264000
0#
#266000
b1011000001000011 $
b1011000001000011 %
b1010000001000011 &
b1010000001000011 '
b1000011 (
b1000011 )
b100000001000011 *
b100000001000011 +
b1111000001000011 ,
b1111000001000011 -
1#
#268000
0#
#270000
b1111000001000100 ,
b1111000001000100 -
b100000001000100 *
b100000001000100 +
b1000100 (
b1000100 )
b1010000001000100 &
b1010000001000100 '
b1011000001000100 $
b1011000001000100 %
1#
#272000
0#
#274000
b1011000001000101 $
b1011000001000101 %
b1010000001000101 &
b1010000001000101 '
b1000101 (
b1000101 )
b100000001000101 *
b100000001000101 +
b1111000001000101 ,
b1111000001000101 -
1#
#276000
0#
#278000
b1111000001000110 ,
b1111000001000110 -
b100000001000110 *
b100000001000110 +
b1000110 (
b1000110 )
b1010000001000110 &
b1010000001000110 '
b1011000001000110 $
b1011000001000110 %
1#
#280000
0#
#282000
b1011000001000111 $
b1011000001000111 %
b1010000001000111 &
b1010000001000111 '
b1000111 (
b1000111 )
b100000001000111 *
b100000001000111 +
b1111000001000111 ,
b1111000001000111 -
1#
#284000
0#
#286000
b1111000001001000 ,
b1111000001001000 -
b100000001001000 *
b100000001001000 +
b1001000 (
b1001000 )
b1010000001001000 &
b1010000001001000 '
b1011000001001000 $
b1011000001001000 %
1#
#288000
0#
#290000
b1011000001001001 $
b1011000001001001 %
b1010000001001001 &
b1010000001001001 '
b1001001 (
b1001001 )
b100000001001001 *
b100000001001001 +
b1111000001001001 ,
b1111000001001001 -
1#
#292000
0#
#294000
b1111000001001010 ,
b1111000001001010 -
b100000001001010 *
b100000001001010 +
b1001010 (
b1001010 )
b1010000001001010 &
b1010000001001010 '
b1011000001001010 $
b1011000001001010 %
1#
#296000
0#
#298000
b1011000001001011 $
b1011000001001011 %
b1010000001001011 &
b1010000001001011 '
b1001011 (
b1001011 )
b100000001001011 *
b100000001001011 +
b1111000001001011 ,
b1111000001001011 -
1#
#300000
0#
#302000
b1111000001001100 ,
b1111000001001100 -
b100000001001100 *
b100000001001100 +
b1001100 (
b1001100 )
b1010000001001100 &
b1010000001001100 '
b1011000001001100 $
b1011000001001100 %
1#
#304000
0#
#306000
b1011000001001101 $
b1011000001001101 %
b1010000001001101 &
b1010000001001101 '
b1001101 (
b1001101 )
b100000001001101 *
b100000001001101 +
b1111000001001101 ,
b1111000001001101 -
1#
#308000
0#
#310000
b1111000001001110 ,
b1111000001001110 -
b100000001001110 *
b100000001001110 +
b1001110 (
b1001110 )
b1010000001001110 &
b1010000001001110 '
b1011000001001110 $
b1011000001001110 %
1#
#312000
0#
#314000
b1011000001001111 $
b1011000001001111 %
b1010000001001111 &
b1010000001001111 '
b1001111 (
b1001111 )
b100000001001111 *
b100000001001111 +
b1111000001001111 ,
b1111000001001111 -
1#
#316000
0#
#318000
b1111000001010000 ,
b1111000001010000 -
b100000001010000 *
b100000001010000 +
b1010000 (
b1010000 )
b1010000001010000 &
b1010000001010000 '
b1011000001010000 $
b1011000001010000 %
1#
#320000
0#
#322000
b1011000001010001 $
b1011000001010001 %
b1010000001010001 &
b1010000001010001 '
b1010001 (
b1010001 )
b100000001010001 *
b100000001010001 +
b1111000001010001 ,
b1111000001010001 -
1#
#324000
0#
#326000
b1111000001010010 ,
b1111000001010010 -
b100000001010010 *
b100000001010010 +
b1010010 (
b1010010 )
b1010000001010010 &
b1010000001010010 '
b1011000001010010 $
b1011000001010010 %
1#
#328000
0#
#330000
b1011000001010011 $
b1011000001010011 %
b1010000001010011 &
b1010000001010011 '
b1010011 (
b1010011 )
b100000001010011 *
b100000001010011 +
b1111000001010011 ,
b1111000001010011 -
1#
#332000
0#
#334000
b1111000001010100 ,
b1111000001010100 -
b100000001010100 *
b100000001010100 +
b1010100 (
b1010100 )
b1010000001010100 &
b1010000001010100 '
b1011000001010100 $
b1011000001010100 %
1#
#336000
0#
#338000
b1011000001010101 $
b1011000001010101 %
b1010000001010101 &
b1010000001010101 '
b1010101 (
b1010101 )
b100000001010101 *
b100000001010101 +
b1111000001010101 ,
b1111000001010101 -
1#
#340000
0#
#342000
b1111000001010110 ,
b1111000001010110 -
b100000001010110 *
b100000001010110 +
b1010110 (
b1010110 )
b1010000001010110 &
b1010000001010110 '
b1011000001010110 $
b1011000001010110 %
1#
#344000
0#
#346000
b1011000001010111 $
b1011000001010111 %
b1010000001010111 &
b1010000001010111 '
b1010111 (
b1010111 )
b100000001010111 *
b100000001010111 +
b1111000001010111 ,
b1111000001010111 -
1#
#348000
0#
#350000
b1111000001011000 ,
b1111000001011000 -
b100000001011000 *
b100000001011000 +
b1011000 (
b1011000 )
b1010000001011000 &
b1010000001011000 '
b1011000001011000 $
b1011000001011000 %
1#
#352000
0#
#354000
b1011000001011001 $
b1011000001011001 %
b1010000001011001 &
b1010000001011001 '
b1011001 (
b1011001 )
b100000001011001 *
b100000001011001 +
b1111000001011001 ,
b1111000001011001 -
1#
#356000
0#
#358000
b1111000001011010 ,
b1111000001011010 -
b100000001011010 *
b100000001011010 +
b1011010 (
b1011010 )
b1010000001011010 &
b1010000001011010 '
b1011000001011010 $
b1011000001011010 %
1#
#360000
0#
#362000
b1011000001011011 $
b1011000001011011 %
b1010000001011011 &
b1010000001011011 '
b1011011 (
b1011011 )
b100000001011011 *
b100000001011011 +
b1111000001011011 ,
b1111000001011011 -
1#
#364000
0#
#366000
b1111000001011100 ,
b1111000001011100 -
b100000001011100 *
b100000001011100 +
b1011100 (
b1011100 )
b1010000001011100 &
b1010000001011100 '
b1011000001011100 $
b1011000001011100 %
1#
#368000
0#
#370000
b1011000001011101 $
b1011000001011101 %
b1010000001011101 &
b1010000001011101 '
b1011101 (
b1011101 )
b100000001011101 *
b100000001011101 +
b1111000001011101 ,
b1111000001011101 -
1#
#372000
0#
#374000
b1111000001011110 ,
b1111000001011110 -
b100000001011110 *
b100000001011110 +
b1011110 (
b1011110 )
b1010000001011110 &
b1010000001011110 '
b1011000001011110 $
b1011000001011110 %
1#
#376000
0#
#378000
b1011000001011111 $
b1011000001011111 %
b1010000001011111 &
b1010000001011111 '
b1011111 (
b1011111 )
b100000001011111 *
b100000001011111 +
b1111000001011111 ,
b1111000001011111 -
1#
#380000
0#
#382000
b1111000001100000 ,
b1111000001100000 -
b100000001100000 *
b100000001100000 +
b1100000 (
b1100000 )
b1010000001100000 &
b1010000001100000 '
b1011000001100000 $
b1011000001100000 %
1#
#384000
0#
#386000
b1011000001100001 $
b1011000001100001 %
b1010000001100001 &
b1010000001100001 '
b1100001 (
b1100001 )
b100000001100001 *
b100000001100001 +
b1111000001100001 ,
b1111000001100001 -
1#
#388000
0#
#390000
b1111000001100010 ,
b1111000001100010 -
b100000001100010 *
b100000001100010 +
b1100010 (
b1100010 )
b1010000001100010 &
b1010000001100010 '
b1011000001100010 $
b1011000001100010 %
1#
#392000
0#
#394000
b1011000001100011 $
b1011000001100011 %
b1010000001100011 &
b1010000001100011 '
b1100011 (
b1100011 )
b100000001100011 *
b100000001100011 +
b1111000001100011 ,
b1111000001100011 -
1#
#396000
0#
#398000
b1111000001100100 ,
b1111000001100100 -
b100000001100100 *
b100000001100100 +
b1100100 (
b1100100 )
b1010000001100100 &
b1010000001100100 '
b1011000001100100 $
b1011000001100100 %
1#
#400000
0#
#402000
b1011000001100101 $
b1011000001100101 %
b1010000001100101 &
b1010000001100101 '
b1100101 (
b1100101 )
b100000001100101 *
b100000001100101 +
b1111000001100101 ,
b1111000001100101 -
1#
#404000
0#
#406000
b1111000001100110 ,
b1111000001100110 -
b100000001100110 *
b100000001100110 +
b1100110 (
b1100110 )
b1010000001100110 &
b1010000001100110 '
b1011000001100110 $
b1011000001100110 %
1#
#408000
0#
#410000
b1011000001100111 $
b1011000001100111 %
b1010000001100111 &
b1010000001100111 '
b1100111 (
b1100111 )
b100000001100111 *
b100000001100111 +
b1111000001100111 ,
b1111000001100111 -
1#
#412000
0#
#414000
b1111000001101000 ,
b1111000001101000 -
b100000001101000 *
b100000001101000 +
b1101000 (
b1101000 )
b1010000001101000 &
b1010000001101000 '
b1011000001101000 $
b1011000001101000 %
1#
#416000
0#
#418000
b1011000001101001 $
b1011000001101001 %
b1010000001101001 &
b1010000001101001 '
b1101001 (
b1101001 )
b100000001101001 *
b100000001101001 +
b1111000001101001 ,
b1111000001101001 -
1#
#420000
0#
#422000
b1111000001101010 ,
b1111000001101010 -
b100000001101010 *
b100000001101010 +
b1101010 (
b1101010 )
b1010000001101010 &
b1010000001101010 '
b1011000001101010 $
b1011000001101010 %
1#
#424000
0#
#426000
b1011000001101011 $
b1011000001101011 %
b1010000001101011 &
b1010000001101011 '
b1101011 (
b1101011 )
b100000001101011 *
b100000001101011 +
b1111000001101011 ,
b1111000001101011 -
1#
#428000
0#
#430000
b1111000001101100 ,
b1111000001101100 -
b100000001101100 *
b100000001101100 +
b1101100 (
b1101100 )
b1010000001101100 &
b1010000001101100 '
b1011000001101100 $
b1011000001101100 %
1#
#432000
0#
#434000
b1011000001101101 $
b1011000001101101 %
b1010000001101101 &
b1010000001101101 '
b1101101 (
b1101101 )
b100000001101101 *
b100000001101101 +
b1111000001101101 ,
b1111000001101101 -
1#
#436000
0#
#438000
b1111000001101110 ,
b1111000001101110 -
b100000001101110 *
b100000001101110 +
b1101110 (
b1101110 )
b1010000001101110 &
b1010000001101110 '
b1011000001101110 $
b1011000001101110 %
1#
#440000
0#
#442000
b1011000001101111 $
b1011000001101111 %
b1010000001101111 &
b1010000001101111 '
b1101111 (
b1101111 )
b100000001101111 *
b100000001101111 +
b1111000001101111 ,
b1111000001101111 -
1#
#444000
0#
#446000
b1111000001110000 ,
b1111000001110000 -
b100000001110000 *
b100000001110000 +
b1110000 (
b1110000 )
b1010000001110000 &
b1010000001110000 '
b1011000001110000 $
b1011000001110000 %
1#
#448000
0#
#450000
b1011000001110001 $
b1011000001110001 %
b1010000001110001 &
b1010000001110001 '
b1110001 (
b1110001 )
b100000001110001 *
b100000001110001 +
b1111000001110001 ,
b1111000001110001 -
1#
#452000
0#
#454000
b1111000001110010 ,
b1111000001110010 -
b100000001110010 *
b100000001110010 +
b1110010 (
b1110010 )
b1010000001110010 &
b1010000001110010 '
b1011000001110010 $
b1011000001110010 %
1#
#456000
0#
#458000
b1011000001110011 $
b1011000001110011 %
b1010000001110011 &
b1010000001110011 '
b1110011 (
b1110011 )
b100000001110011 *
b100000001110011 +
b1111000001110011 ,
b1111000001110011 -
1#
#460000
0#
#462000
b1111000001110100 ,
b1111000001110100 -
b100000001110100 *
b100000001110100 +
b1110100 (
b1110100 )
b1010000001110100 &
b1010000001110100 '
b1011000001110100 $
b1011000001110100 %
1#
#464000
0#
#466000
b1011000001110101 $
b1011000001110101 %
b1010000001110101 &
b1010000001110101 '
b1110101 (
b1110101 )
b100000001110101 *
b100000001110101 +
b1111000001110101 ,
b1111000001110101 -
1#
#468000
0#
#470000
b1111000001110110 ,
b1111000001110110 -
b100000001110110 *
b100000001110110 +
b1110110 (
b1110110 )
b1010000001110110 &
b1010000001110110 '
b1011000001110110 $
b1011000001110110 %
1#
#472000
0#
#474000
b1011000001110111 $
b1011000001110111 %
b1010000001110111 &
b1010000001110111 '
b1110111 (
b1110111 )
b100000001110111 *
b100000001110111 +
b1111000001110111 ,
b1111000001110111 -
1#
#476000
0#
#478000
b1111000001111000 ,
b1111000001111000 -
b100000001111000 *
b100000001111000 +
b1111000 (
b1111000 )
b1010000001111000 &
b1010000001111000 '
b1011000001111000 $
b1011000001111000 %
1#
#480000
0#
#482000
b1011000001111001 $
b1011000001111001 %
b1010000001111001 &
b1010000001111001 '
b1111001 (
b1111001 )
b100000001111001 *
b100000001111001 +
b1111000001111001 ,
b1111000001111001 -
1#
#484000
0#
#486000
b1111000001111010 ,
b1111000001111010 -
b100000001111010 *
b100000001111010 +
b1111010 (
b1111010 )
b1010000001111010 &
b1010000001111010 '
b1011000001111010 $
b1011000001111010 %
1#
#488000
0#
#490000
b1011000001111011 $
b1011000001111011 %
b1010000001111011 &
b1010000001111011 '
b1111011 (
b1111011 )
b100000001111011 *
b100000001111011 +
b1111000001111011 ,
b1111000001111011 -
1#
#492000
0#
#494000
b1111000001111100 ,
b1111000001111100 -
b100000001111100 *
b100000001111100 +
b1111100 (
b1111100 )
b1010000001111100 &
b1010000001111100 '
b1011000001111100 $
b1011000001111100 %
1#
#496000
0#
#498000
b1011000001111101 $
b1011000001111101 %
b1010000001111101 &
b1010000001111101 '
b1111101 (
b1111101 )
b100000001111101 *
b100000001111101 +
b1111000001111101 ,
b1111000001111101 -
1#
#500000
0#
#502000
b1111000001111110 ,
b1111000001111110 -
b100000001111110 *
b100000001111110 +
b1111110 (
b1111110 )
b1010000001111110 &
b1010000001111110 '
b1011000001111110 $
b1011000001111110 %
1#
#504000
0#
#506000
b1011000001111111 $
b1011000001111111 %
b1010000001111111 &
b1010000001111111 '
b1111111 (
b1111111 )
b100000001111111 *
b100000001111111 +
b1111000001111111 ,
b1111000001111111 -
1#
#508000
0#
#510000
b1111000010000000 ,
b1111000010000000 -
b100000010000000 *
b100000010000000 +
b10000000 (
b10000000 )
b1010000010000000 &
b1010000010000000 '
b1011000010000000 $
b1011000010000000 %
1#
#512000
0#
#514000
b1011000010000001 $
b1011000010000001 %
b1010000010000001 &
b1010000010000001 '
b10000001 (
b10000001 )
b100000010000001 *
b100000010000001 +
b1111000010000001 ,
b1111000010000001 -
1#
#516000
0#
#518000
b1111000010000010 ,
b1111000010000010 -
b100000010000010 *
b100000010000010 +
b10000010 (
b10000010 )
b1010000010000010 &
b1010000010000010 '
b1011000010000010 $
b1011000010000010 %
1#
#520000
0#
#522000
b1011000010000011 $
b1011000010000011 %
b1010000010000011 &
b1010000010000011 '
b10000011 (
b10000011 )
b100000010000011 *
b100000010000011 +
b1111000010000011 ,
b1111000010000011 -
1#
#524000
0#
#526000
b1111000010000100 ,
b1111000010000100 -
b100000010000100 *
b100000010000100 +
b10000100 (
b10000100 )
b1010000010000100 &
b1010000010000100 '
b1011000010000100 $
b1011000010000100 %
1#
#528000
0#
#530000
b1011000010000101 $
b1011000010000101 %
b1010000010000101 &
b1010000010000101 '
b10000101 (
b10000101 )
b100000010000101 *
b100000010000101 +
b1111000010000101 ,
b1111000010000101 -
1#
#532000
0#
#534000
b1111000010000110 ,
b1111000010000110 -
b100000010000110 *
b100000010000110 +
b10000110 (
b10000110 )
b1010000010000110 &
b1010000010000110 '
b1011000010000110 $
b1011000010000110 %
1#
#536000
0#
#538000
b1011000010000111 $
b1011000010000111 %
b1010000010000111 &
b1010000010000111 '
b10000111 (
b10000111 )
b100000010000111 *
b100000010000111 +
b1111000010000111 ,
b1111000010000111 -
1#
#540000
0#
